
{
  "header": {
    "reportVersion": 1,
    "event": "Allocation failed - JavaScript heap out of memory",
    "trigger": "FatalError",
    "filename": "report.20210413.150404.26156.0.001.json",
    "dumpEventTime": "2021-04-13T15:04:04Z",
    "dumpEventTimeStamp": "1618319044248",
    "processId": 26156,
    "cwd": "C:\\Users\\isado\\OneDrive - LECNAM\\OpenClassrooms\\Développeur Web\\P2_vuongvan_isadora\\p2_ivv",
    "commandLine": [
      "node",
      "C:\\Users\\isado\\OneDrive - LECNAM\\OpenClassrooms\\Développeur Web\\P2_vuongvan_isadora\\p2_ivv\\node_modules\\.bin\\\\..\\lite-server\\bin\\lite-server"
    ],
    "nodejsVersion": "v12.13.1",
    "wordSize": 64,
    "arch": "x64",
    "platform": "win32",
    "componentVersions": {
      "node": "12.13.1",
      "v8": "7.7.299.13-node.16",
      "uv": "1.33.1",
      "zlib": "1.2.11",
      "brotli": "1.0.7",
      "ares": "1.15.0",
      "modules": "72",
      "nghttp2": "1.39.2",
      "napi": "5",
      "llhttp": "1.1.4",
      "http_parser": "2.8.0",
      "openssl": "1.1.1d",
      "cldr": "35.1",
      "icu": "64.2",
      "tz": "2019c",
      "unicode": "12.1"
    },
    "release": {
      "name": "node",
      "lts": "Erbium",
      "headersUrl": "https://nodejs.org/download/release/v12.13.1/node-v12.13.1-headers.tar.gz",
      "sourceUrl": "https://nodejs.org/download/release/v12.13.1/node-v12.13.1.tar.gz",
      "libUrl": "https://nodejs.org/download/release/v12.13.1/win-x64/node.lib"
    },
    "osName": "Windows_NT",
    "osRelease": "10.0.19042",
    "osVersion": "Windows 10 Home",
    "osMachine": "x86_64",
    "cpus": [
      {
        "model": "Intel(R) Core(TM) i5-8265U CPU @ 1.60GHz",
        "speed": 1800,
        "user": 3829937,
        "nice": 0,
        "sys": 5105687,
        "idle": 163302328,
        "irq": 331281
      },
      {
        "model": "Intel(R) Core(TM) i5-8265U CPU @ 1.60GHz",
        "speed": 1800,
        "user": 2369109,
        "nice": 0,
        "sys": 2263390,
        "idle": 167605296,
        "irq": 28671
      },
      {
        "model": "Intel(R) Core(TM) i5-8265U CPU @ 1.60GHz",
        "speed": 1800,
        "user": 4743500,
        "nice": 0,
        "sys": 4205875,
        "idle": 163288421,
        "irq": 39921
      },
      {
        "model": "Intel(R) Core(TM) i5-8265U CPU @ 1.60GHz",
        "speed": 1800,
        "user": 2871171,
        "nice": 0,
        "sys": 2500750,
        "idle": 166865875,
        "irq": 21140
      },
      {
        "model": "Intel(R) Core(TM) i5-8265U CPU @ 1.60GHz",
        "speed": 1800,
        "user": 4106187,
        "nice": 0,
        "sys": 3466140,
        "idle": 164665468,
        "irq": 32968
      },
      {
        "model": "Intel(R) Core(TM) i5-8265U CPU @ 1.60GHz",
        "speed": 1800,
        "user": 2429421,
        "nice": 0,
        "sys": 2726078,
        "idle": 167082296,
        "irq": 22875
      },
      {
        "model": "Intel(R) Core(TM) i5-8265U CPU @ 1.60GHz",
        "speed": 1800,
        "user": 6546515,
        "nice": 0,
        "sys": 10580875,
        "idle": 155110390,
        "irq": 31750
      },
      {
        "model": "Intel(R) Core(TM) i5-8265U CPU @ 1.60GHz",
        "speed": 1800,
        "user": 3129437,
        "nice": 0,
        "sys": 3623093,
        "idle": 165485250,
        "irq": 19343
      }
    ],
    "networkInterfaces": [
      {
        "name": "Wi-Fi",
        "internal": false,
        "mac": "9c:b6:d0:96:de:7f",
        "address": "fe80::a034:7cb6:c955:10fa",
        "netmask": "ffff:ffff:ffff:ffff::",
        "family": "IPv6",
        "scopeid": 4
      },
      {
        "name": "Wi-Fi",
        "internal": false,
        "mac": "9c:b6:d0:96:de:7f",
        "address": "192.168.0.19",
        "netmask": "255.255.255.0",
        "family": "IPv4"
      },
      {
        "name": "Loopback Pseudo-Interface 1",
        "internal": true,
        "mac": "00:00:00:00:00:00",
        "address": "::1",
        "netmask": "ffff:ffff:ffff:ffff:ffff:ffff:ffff:ffff",
        "family": "IPv6",
        "scopeid": 0
      },
      {
        "name": "Loopback Pseudo-Interface 1",
        "internal": true,
        "mac": "00:00:00:00:00:00",
        "address": "127.0.0.1",
        "netmask": "255.0.0.0",
        "family": "IPv4"
      }
    ],
    "host": "XPS-Love"
  },
  "javascriptStack": {
    "message": "No stack.",
    "stack": [
      "Unavailable."
    ]
  },
  "nativeStack": [
    {
      "pc": "0x00007ff7903f1729",
      "symbol": "std::basic_ostream<char,std::char_traits<char> >::operator<<+10873"
    },
    {
      "pc": "0x00007ff7903f5b4c",
      "symbol": "std::basic_ostream<char,std::char_traits<char> >::operator<<+28316"
    },
    {
      "pc": "0x00007ff7903f4b08",
      "symbol": "std::basic_ostream<char,std::char_traits<char> >::operator<<+24152"
    },
    {
      "pc": "0x00007ff7904e369b",
      "symbol": "v8::base::CPU::has_sse+37723"
    },
    {
      "pc": "0x00007ff790ce82de",
      "symbol": "v8::Isolate::ReportExternalAllocationLimitReached+94"
    },
    {
      "pc": "0x00007ff790cd0321",
      "symbol": "v8::SharedArrayBuffer::Externalize+833"
    },
    {
      "pc": "0x00007ff790b9dbec",
      "symbol": "v8::internal::Heap::EphemeronKeyWriteBarrierFromCode+1436"
    },
    {
      "pc": "0x00007ff790ba8f90",
      "symbol": "v8::internal::Heap::ProtectUnprotectedMemoryChunks+1312"
    },
    {
      "pc": "0x00007ff790ba5ac4",
      "symbol": "v8::internal::Heap::PageFlagsAreConsistent+3204"
    },
    {
      "pc": "0x00007ff790b9b353",
      "symbol": "v8::internal::Heap::CollectGarbage+1283"
    },
    {
      "pc": "0x00007ff790b99b24",
      "symbol": "v8::internal::Heap::AddRetainedMap+2356"
    },
    {
      "pc": "0x00007ff790bbadf5",
      "symbol": "v8::internal::Factory::NewFillerObject+53"
    },
    {
      "pc": "0x00007ff790926e19",
      "symbol": "v8::internal::interpreter::JumpTableTargetOffsets::iterator::operator=+4057"
    },
    {
      "pc": "0x00007ff79111404d",
      "symbol": "v8::internal::SetupIsolateDelegate::SetupHeap+567949"
    },
    {
      "pc": "0x00007ff791114f81",
      "symbol": "v8::internal::SetupIsolateDelegate::SetupHeap+571841"
    },
    {
      "pc": "0x00000248b3a37880",
      "symbol": ""
    }
  ],
  "javascriptHeap": {
    "totalMemory": 2182520832,
    "totalCommittedMemory": 2182520832,
    "usedMemory": 2110408960,
    "availableMemory": 77625888,
    "memoryLimit": 2197815296,
    "heapSpaces": {
      "read_only_space": {
        "memorySize": 262144,
        "committedMemory": 262144,
        "capacity": 261872,
        "used": 32296,
        "available": 229576
      },
      "new_space": {
        "memorySize": 33554432,
        "committedMemory": 33554432,
        "capacity": 16759808,
        "used": 3088616,
        "available": 13671192
      },
      "old_space": {
        "memorySize": 2138681344,
        "committedMemory": 2138681344,
        "capacity": 2129738776,
        "used": 2098067928,
        "available": 31670848
      },
      "code_space": {
        "memorySize": 950272,
        "committedMemory": 950272,
        "capacity": 697792,
        "used": 697792,
        "available": 0
      },
      "map_space": {
        "memorySize": 1052672,
        "committedMemory": 1052672,
        "capacity": 574080,
        "used": 574080,
        "available": 0
      },
      "large_object_space": {
        "memorySize": 7970816,
        "committedMemory": 7970816,
        "capacity": 7944696,
        "used": 7944696,
        "available": 0
      },
      "code_large_object_space": {
        "memorySize": 49152,
        "committedMemory": 49152,
        "capacity": 3552,
        "used": 3552,
        "available": 0
      },
      "new_large_object_space": {
        "memorySize": 0,
        "committedMemory": 0,
        "capacity": 16759808,
        "used": 0,
        "available": 16759808
      }
    }
  },
  "resourceUsage": {
    "userCpuSeconds": 660.125,
    "kernelCpuSeconds": 796.109,
    "cpuConsumptionPercent": 23.5104,
    "maxRss": 2781650944,
    "pageFaults": {
      "IORequired": 5130139,
      "IONotRequired": 0
    },
    "fsActivity": {
      "reads": 941,
      "writes": 5
    }
  },
  "libuv": [
  ],
  "environmentVariables": {
    "=C:": "C:\\Users\\isado\\OneDrive - LECNAM\\OpenClassrooms\\Développeur Web\\P2_vuongvan_isadora\\p2_ivv",
    "ALLUSERSPROFILE": "C:\\ProgramData",
    "APPDATA": "C:\\Users\\isado\\AppData\\Roaming",
    "CHROME_CRASHPAD_PIPE_NAME": "\\\\.\\pipe\\crashpad_13468_NBPBAFYIVVEWEUDD",
    "COLORTERM": "truecolor",
    "CommonProgramFiles": "C:\\Program Files\\Common Files",
    "CommonProgramFiles(x86)": "C:\\Program Files (x86)\\Common Files",
    "CommonProgramW6432": "C:\\Program Files\\Common Files",
    "COMPUTERNAME": "XPS-LOVE",
    "ComSpec": "C:\\WINDOWS\\system32\\cmd.exe",
    "dp0": "C:\\Users\\isado\\OneDrive - LECNAM\\OpenClassrooms\\Développeur Web\\P2_vuongvan_isadora\\p2_ivv\\node_modules\\.bin\\",
    "DriverData": "C:\\Windows\\System32\\Drivers\\DriverData",
    "FPS_BROWSER_APP_PROFILE_STRING": "Internet Explorer",
    "FPS_BROWSER_USER_PROFILE_STRING": "Default",
    "GIT_ASKPASS": "c:\\Users\\isado\\AppData\\Local\\Programs\\Microsoft VS Code\\resources\\app\\extensions\\git\\dist\\askpass.sh",
    "HOME": "C:\\Users\\isado",
    "HOMEDRIVE": "C:",
    "HOMEPATH": "\\Users\\isado",
    "INIT_CWD": "C:\\Users\\isado\\OneDrive - LECNAM\\OpenClassrooms\\Développeur Web\\P2_vuongvan_isadora\\p2_ivv",
    "LANG": "en_US.UTF-8",
    "LOCALAPPDATA": "C:\\Users\\isado\\AppData\\Local",
    "LOGONSERVER": "\\\\XPS-LOVE",
    "NODE": "C:\\Program Files\\nodejs\\node.exe",
    "NODE_EXE": "C:\\Program Files\\nodejs\\\\node.exe",
    "NPM_CLI_JS": "C:\\Program Files\\nodejs\\\\node_modules\\npm\\bin\\npm-cli.js",
    "npm_config_access": "",
    "npm_config_allow_same_version": "",
    "npm_config_also": "",
    "npm_config_always_auth": "",
    "npm_config_argv": "{\"remain\":[],\"cooked\":[\"run\",\"dev\"],\"original\":[\"run\",\"dev\"]}",
    "npm_config_audit": "true",
    "npm_config_audit_level": "low",
    "npm_config_auth_type": "legacy",
    "npm_config_before": "",
    "npm_config_bin_links": "true",
    "npm_config_browser": "",
    "npm_config_ca": "",
    "npm_config_cache": "C:\\Users\\isado\\AppData\\Roaming\\npm-cache",
    "npm_config_cache_lock_retries": "10",
    "npm_config_cache_lock_stale": "60000",
    "npm_config_cache_lock_wait": "10000",
    "npm_config_cache_max": "Infinity",
    "npm_config_cache_min": "10",
    "npm_config_cafile": "",
    "npm_config_cert": "",
    "npm_config_cidr": "",
    "npm_config_color": "true",
    "npm_config_commit_hooks": "true",
    "npm_config_depth": "Infinity",
    "npm_config_description": "true",
    "npm_config_dev": "",
    "npm_config_dry_run": "",
    "npm_config_editor": "notepad.exe",
    "npm_config_engine_strict": "",
    "npm_config_fetch_retries": "2",
    "npm_config_fetch_retry_factor": "10",
    "npm_config_fetch_retry_maxtimeout": "60000",
    "npm_config_fetch_retry_mintimeout": "10000",
    "npm_config_force": "",
    "npm_config_format_package_lock": "true",
    "npm_config_git": "git",
    "npm_config_git_tag_version": "true",
    "npm_config_global": "",
    "npm_config_globalconfig": "C:\\Users\\isado\\AppData\\Roaming\\npm\\etc\\npmrc",
    "npm_config_globalignorefile": "C:\\Users\\isado\\AppData\\Roaming\\npm\\etc\\npmignore",
    "npm_config_global_style": "",
    "npm_config_group": "",
    "npm_config_ham_it_up": "",
    "npm_config_heading": "npm",
    "npm_config_https_proxy": "",
    "npm_config_if_present": "",
    "npm_config_ignore_prepublish": "",
    "npm_config_ignore_scripts": "",
    "npm_config_init_author_email": "",
    "npm_config_init_author_name": "",
    "npm_config_init_author_url": "",
    "npm_config_init_license": "ISC",
    "npm_config_init_module": "C:\\Users\\isado\\.npm-init.js",
    "npm_config_init_version": "1.0.0",
    "npm_config_json": "",
    "npm_config_key": "",
    "npm_config_legacy_bundling": "",
    "npm_config_link": "",
    "npm_config_local_address": "",
    "npm_config_loglevel": "notice",
    "npm_config_logs_max": "10",
    "npm_config_long": "",
    "npm_config_maxsockets": "50",
    "npm_config_message": "%s",
    "npm_config_metrics_registry": "https://registry.npmjs.org/",
    "npm_config_node_gyp": "C:\\Program Files\\nodejs\\node_modules\\npm\\node_modules\\node-gyp\\bin\\node-gyp.js",
    "npm_config_node_options": "",
    "npm_config_node_version": "12.13.1",
    "npm_config_noproxy": "",
    "npm_config_offline": "",
    "npm_config_onload_script": "",
    "npm_config_only": "",
    "npm_config_optional": "true",
    "npm_config_otp": "",
    "npm_config_package_lock": "true",
    "npm_config_package_lock_only": "",
    "npm_config_parseable": "",
    "npm_config_prefer_offline": "",
    "npm_config_prefer_online": "",
    "npm_config_prefix": "C:\\Users\\isado\\AppData\\Roaming\\npm",
    "npm_config_preid": "",
    "npm_config_production": "",
    "npm_config_progress": "true",
    "npm_config_proxy": "",
    "npm_config_read_only": "",
    "npm_config_rebuild_bundle": "true",
    "npm_config_registry": "https://registry.npmjs.org/",
    "npm_config_rollback": "true",
    "npm_config_save": "true",
    "npm_config_save_bundle": "",
    "npm_config_save_dev": "",
    "npm_config_save_exact": "",
    "npm_config_save_optional": "",
    "npm_config_save_prefix": "^",
    "npm_config_save_prod": "",
    "npm_config_scope": "",
    "npm_config_scripts_prepend_node_path": "warn-only",
    "npm_config_script_shell": "",
    "npm_config_searchexclude": "",
    "npm_config_searchlimit": "20",
    "npm_config_searchopts": "",
    "npm_config_searchstaleness": "900",
    "npm_config_send_metrics": "",
    "npm_config_shell": "C:\\WINDOWS\\system32\\cmd.exe",
    "npm_config_shrinkwrap": "true",
    "npm_config_sign_git_commit": "",
    "npm_config_sign_git_tag": "",
    "npm_config_sso_poll_frequency": "500",
    "npm_config_sso_type": "oauth",
    "npm_config_strict_ssl": "true",
    "npm_config_tag": "latest",
    "npm_config_tag_version_prefix": "v",
    "npm_config_timing": "",
    "npm_config_tmp": "C:\\Users\\isado\\AppData\\Local\\Temp",
    "npm_config_umask": "0000",
    "npm_config_unicode": "",
    "npm_config_unsafe_perm": "true",
    "npm_config_update_notifier": "true",
    "npm_config_usage": "",
    "npm_config_user": "",
    "npm_config_userconfig": "C:\\Users\\isado\\.npmrc",
    "npm_config_user_agent": "npm/6.12.1 node/v12.13.1 win32 x64",
    "npm_config_version": "",
    "npm_config_versions": "",
    "npm_config_viewer": "browser",
    "npm_execpath": "C:\\Program Files\\nodejs\\node_modules\\npm\\bin\\npm-cli.js",
    "npm_lifecycle_event": "dev",
    "npm_lifecycle_script": "lite-server",
    "npm_node_execpath": "C:\\Program Files\\nodejs\\node.exe",
    "npm_package_author_name": "Isadora Vuong Van",
    "npm_package_bugs_url": "https://gitlab.com/isadoravv/p2_ivv/issues",
    "npm_package_dependencies_html_validate": "^4.7.1",
    "npm_package_dependencies__fortawesome_fontawesome_free": "^5.15.3",
    "npm_package_description": "Projet 2 Dev Web OpenClassrooms",
    "npm_package_devDependencies_eslint": "^7.22.0",
    "npm_package_devDependencies_lite_server": "^2.6.1",
    "npm_package_devDependencies_prettier": "^2.2.1",
    "npm_package_devDependencies_simple_git_hooks": "^2.2.0",
    "npm_package_devDependencies_stylelint": "^13.12.0",
    "npm_package_devDependencies_stylelint_config_prettier": "^8.0.2",
    "npm_package_devDependencies_stylelint_config_standard": "^21.0.0",
    "npm_package_gitHead": "ea06218addd456f866f671e75badc4d89ef14082",
    "npm_package_homepage": "https://gitlab.com/isadoravv/p2_ivv#readme",
    "npm_package_license": "MIT",
    "npm_package_lint_staged___css": "stylelint --fix",
    "npm_package_lint_staged___js": "eslint --cache --fix",
    "npm_package_lint_staged____js_css_md_html_": "prettier --check",
    "npm_package_main": "index.js",
    "npm_package_name": "p2_ivv",
    "npm_package_readmeFilename": "README.md",
    "npm_package_repository_type": "git",
    "npm_package_repository_url": "git+https://gitlab.com/isadoravv/p2_ivv.git",
    "npm_package_scripts_dev": "lite-server",
    "npm_package_scripts_test": "html-validate ./index.html",
    "npm_package_version": "1.0.0",
    "NPM_PREFIX_NPM_CLI_JS": "C:\\Users\\isado\\AppData\\Roaming\\npm\\node_modules\\npm\\bin\\npm-cli.js",
    "NUMBER_OF_PROCESSORS": "8",
    "OneDrive": "C:\\Users\\isado\\OneDrive - LECNAM",
    "OneDriveCommercial": "C:\\Users\\isado\\OneDrive - LECNAM",
    "OneDriveConsumer": "C:\\Users\\isado\\OneDrive",
    "ORIGINAL_XDG_CURRENT_DESKTOP": "undefined",
    "OS": "Windows_NT",
    "Path": "C:\\Program Files\\nodejs\\node_modules\\npm\\node_modules\\npm-lifecycle\\node-gyp-bin;C:\\Users\\isado\\OneDrive - LECNAM\\OpenClassrooms\\Développeur Web\\P2_vuongvan_isadora\\p2_ivv\\node_modules\\.bin;C:\\Program Files\\AdoptOpenJDK\\jdk-12.0.2.10-hotspot\\bin;C:\\WINDOWS\\system32;C:\\WINDOWS;C:\\WINDOWS\\System32\\Wbem;C:\\WINDOWS\\System32\\WindowsPowerShell\\v1.0\\;C:\\WINDOWS\\System32\\OpenSSH\\;C:\\Program Files\\Git\\cmd;C:\\Program Files\\nodejs\\;C:\\Program Files\\PostgreSQL\\12\\bin;C:\\Program Files\\PostgreSQL\\12\\lib;C:\\Users\\isado\\AppData\\Local\\Programs\\Python\\Python38\\Scripts\\;C:\\Users\\isado\\AppData\\Local\\Programs\\Python\\Python38\\;C:\\Users\\isado\\AppData\\Local\\Microsoft\\WindowsApps;;C:\\Users\\isado\\AppData\\Local\\Programs\\Microsoft VS Code\\bin;C:\\Users\\isado\\AppData\\Roaming\\npm",
    "PATHEXT": ".COM;.EXE;.BAT;.CMD;.VBS;.VBE;.JSE;.WSF;.WSH;.MSC",
    "PROCESSOR_ARCHITECTURE": "AMD64",
    "PROCESSOR_IDENTIFIER": "Intel64 Family 6 Model 142 Stepping 11, GenuineIntel",
    "PROCESSOR_LEVEL": "6",
    "PROCESSOR_REVISION": "8e0b",
    "ProgramData": "C:\\ProgramData",
    "ProgramFiles": "C:\\Program Files",
    "ProgramFiles(x86)": "C:\\Program Files (x86)",
    "ProgramW6432": "C:\\Program Files",
    "PROMPT": "$P$G",
    "PSModulePath": "C:\\Program Files\\WindowsPowerShell\\Modules;C:\\WINDOWS\\system32\\WindowsPowerShell\\v1.0\\Modules",
    "PUBLIC": "C:\\Users\\Public",
    "SESSIONNAME": "Console",
    "SystemDrive": "C:",
    "SystemRoot": "C:\\WINDOWS",
    "TEMP": "C:\\Users\\isado\\AppData\\Local\\Temp",
    "TERM_PROGRAM": "vscode",
    "TERM_PROGRAM_VERSION": "1.55.1",
    "TMP": "C:\\Users\\isado\\AppData\\Local\\Temp",
    "USERDOMAIN": "XPS-LOVE",
    "USERDOMAIN_ROAMINGPROFILE": "XPS-LOVE",
    "USERNAME": "isado",
    "USERPROFILE": "C:\\Users\\isado",
    "VSCODE_GIT_ASKPASS_MAIN": "c:\\Users\\isado\\AppData\\Local\\Programs\\Microsoft VS Code\\resources\\app\\extensions\\git\\dist\\askpass-main.js",
    "VSCODE_GIT_ASKPASS_NODE": "C:\\Users\\isado\\AppData\\Local\\Programs\\Microsoft VS Code\\Code.exe",
    "VSCODE_GIT_IPC_HANDLE": "\\\\.\\pipe\\vscode-git-f794adbbe8-sock",
    "windir": "C:\\WINDOWS",
    "ZES_ENABLE_SYSMAN": "1",
    "_prog": "node",
    "__COMPAT_LAYER": "DetectorsAppHealth"
  },
  "sharedObjects": [
    "C:\\Program Files\\nodejs\\node.exe",
    "C:\\WINDOWS\\SYSTEM32\\ntdll.dll",
    "C:\\Program Files\\AVAST Software\\Avast\\aswhook.dll",
    "C:\\WINDOWS\\System32\\KERNEL32.DLL",
    "C:\\WINDOWS\\System32\\KERNELBASE.dll",
    "C:\\WINDOWS\\SYSTEM32\\apphelp.dll",
    "C:\\WINDOWS\\System32\\WS2_32.dll",
    "C:\\WINDOWS\\System32\\RPCRT4.dll",
    "C:\\WINDOWS\\SYSTEM32\\dbghelp.dll",
    "C:\\WINDOWS\\System32\\ADVAPI32.dll",
    "C:\\WINDOWS\\System32\\ucrtbase.dll",
    "C:\\WINDOWS\\System32\\msvcrt.dll",
    "C:\\WINDOWS\\System32\\sechost.dll",
    "C:\\WINDOWS\\System32\\USER32.dll",
    "C:\\WINDOWS\\System32\\win32u.dll",
    "C:\\WINDOWS\\System32\\GDI32.dll",
    "C:\\WINDOWS\\System32\\gdi32full.dll",
    "C:\\WINDOWS\\System32\\msvcp_win.dll",
    "C:\\WINDOWS\\System32\\PSAPI.DLL",
    "C:\\WINDOWS\\System32\\CRYPT32.dll",
    "C:\\WINDOWS\\System32\\bcrypt.dll",
    "C:\\WINDOWS\\SYSTEM32\\IPHLPAPI.DLL",
    "C:\\WINDOWS\\SYSTEM32\\USERENV.dll",
    "C:\\WINDOWS\\SYSTEM32\\WINMM.dll",
    "C:\\WINDOWS\\System32\\IMM32.DLL",
    "C:\\WINDOWS\\SYSTEM32\\powrprof.dll",
    "C:\\WINDOWS\\SYSTEM32\\UMPDC.dll",
    "C:\\WINDOWS\\SYSTEM32\\CRYPTBASE.DLL",
    "C:\\WINDOWS\\system32\\uxtheme.dll",
    "C:\\WINDOWS\\System32\\combase.dll",
    "C:\\WINDOWS\\system32\\mswsock.dll",
    "C:\\WINDOWS\\SYSTEM32\\kernel.appcore.dll",
    "C:\\WINDOWS\\System32\\bcryptprimitives.dll",
    "C:\\WINDOWS\\System32\\NSI.dll",
    "C:\\WINDOWS\\SYSTEM32\\dhcpcsvc6.DLL",
    "C:\\WINDOWS\\SYSTEM32\\dhcpcsvc.DLL",
    "C:\\WINDOWS\\SYSTEM32\\DNSAPI.dll",
    "C:\\WINDOWS\\system32\\napinsp.dll",
    "C:\\WINDOWS\\system32\\pnrpnsp.dll",
    "C:\\WINDOWS\\system32\\wshbth.dll",
    "C:\\WINDOWS\\system32\\NLAapi.dll",
    "C:\\WINDOWS\\System32\\winrnr.dll"
  ]
}